{
  "categorias": [
    {
      "titulo": "Puppies",
      "link": "https://cuteflix.vercel.app/",
      "cor": "#6BD1FF",
      "videos": [
        {
          "titulo": "😍 Cute Puppies Doing Funny Things 2020 😍 #8 | Cute VN",
          "url": "https://www.youtube.com/watch?v=dzG1TL3CjEs"
        },
        {
          "titulo": "Cute baby animals Videos Compilation cutest moment of the animals - Cutest Puppies #2",
          "url": "https://www.youtube.com/watch?v=B1CPE6WWsAQ"
        },
        {
          "titulo": "Funny Puppies And Cute Puppy Videos Compilation 2016 [BEST OF]",
          "url": "https://www.youtube.com/watch?v=mRf3-JkwqfU"
        },
        {
          "titulo": "😍 Cute Puppies Doing Funny Things 2019 😍 #2 | Cute VN",
          "url": "https://www.youtube.com/watch?v=Dtv67hy782A"
        },
        {
          "titulo": "♥Cute Puppies Doing Funny Things 2020♥ #10 Cutest Dogs",
          "url": "https://www.youtube.com/watch?v=JZqvuBxEDnw"
        }
      ]
    },
    {
      "titulo": "Kittens",
      "cor": "#00C86F",
      "videos": [
        {
          "titulo": "LIVE: Caramel and her kitten, Salty!",
          "url": "https://www.youtube.com/watch?v=i2YJF4Yhp1I"
        },
        {
          "titulo": "So many cute kittens videos compilation 2018",
          "url": "https://www.youtube.com/watch?v=SB-qEYVdvXA"
        },
        {
          "titulo": "😍 Supper Cute Kittens In The World #8 - Cute VN",
          "url": "https://www.youtube.com/watch?v=_-xIg_0X408"
        },
        {
          "titulo": "🐱 Cute Kittens Doing Funny Things 2020 🐱 #3 Cutest Cats",
          "url": "https://www.youtube.com/watch?v=_u_bdjPsj5U"
        },
        {
          "titulo": "😍 Cute is Not Enough - Cute Kittens In The World #3| CuteVN Animals",
          "url": "https://www.youtube.com/watch?v=HcROIlwiuGQ"
        },
        {
          "titulo": "Cutest Cats Compilation 2017 | Best Cute Cat Videos Ever",
          "url": "https://www.youtube.com/watch?v=rNSnfXl1ZjU"
        },
        {
          "titulo": "😍 Supper Cute Kittens In The World #4 - Cute VN",
          "url": "https://www.youtube.com/watch?v=Des5TrztWRU"
        },
        {
          "titulo": "Little kittens meowing and talking - Cute cat video",
          "url": "https://www.youtube.com/watch?v=4IP_E7efGWE"
        }
      ]
    },
    {
      "titulo": "Animal Babies",
      "cor": "#9cd33b",
      "videos": [
        {
          "titulo": "Cute baby animals Videos Compilation cute moment of the animals - Cutest Animals #3",
          "url": "https://www.youtube.com/watch?v=NGC8IS4gjpM"
        },
        {
          "titulo": "Baby Cats - Cute and Funny Cat Videos Compilation #8 | Aww Animals",
          "url": "https://www.youtube.com/watch?v=uHKfrz65KSU"
        },
        {
          "titulo": "Cute baby animals Videos Compilation cutest moment of the animals - Soo Cute! #12",
          "url": "https://www.youtube.com/watch?v=ynp7O45r0s8"
        },
        {
          "titulo": "Cute baby animals Videos Compilation cutest moment of the animals - Soo Cute! #90",
          "url": "https://www.youtube.com/watch?v=oOBJ-sIw4W8"
        },
        {
          "titulo": "Animals SOO Cute! Cute baby animals Videos Compilation cutest moment of the animals #9",
          "url": "https://www.youtube.com/watch?v=LuZmG3oMjEw"
        },
        {
          "titulo": "AWW CUTE BABY ANIMALS Videos Compilation cutest moment of the animals - Soo Cute! #37",
          "url": "https://www.youtube.com/watch?v=FQX6OYcarBM"
        },
        {
          "titulo": "Cute Baby Bunny Washing Her Face",
          "url": "https://www.youtube.com/watch?v=_v94XqFW4Qw"
        }
      ]
    },
    {
      "titulo": "Human Babies",
      "cor": "orange",
      "videos": [
        {
          "titulo": "Cute Newborn Babies With Families - Cute Baby Videos",
          "url": "https://www.youtube.com/watch?v=6msnhA2BoHo"
        },
        {
          "titulo": "CUTEST and FUNNIEST BABIES on Youtube - The best baby compilation",
          "url": "https://www.youtube.com/watch?v=qqHkhZfIlg8"
        },
        {
          "titulo": "TRY NOT TO LAUGH - ULTIMATE Epic Kids Fail Compilation | Cute Baby Videos | Funny Vines 2018",
          "url": "https://www.youtube.com/watch?v=2aK8hy50fS4"
        },
        {
          "titulo": "Cutest Baby Family Moments - Fun and Fails Baby Video",
          "url": "https://www.youtube.com/watch?v=fV6Ms9EwMhc"
        },
        {
          "titulo": "The FUNNIEST and CUTEST video you'll see today! - TWIN BABIES Adorable Moments",
          "url": "https://www.youtube.com/watch?v=sOhhtQTNoiU"
        }
      ]
    }
  ]
}
